<?xml version="1.0" encoding="utf-8"?>
<!-- Generator: Adobe Illustrator 23.0.0, SVG Export Plug-In . SVG Version: 6.00 Build 0)  -->
<svg version="1.1" id="Capa_1" xmlns="http://www.w3.org/2000/svg" xmlns:xlink="http://www.w3.org/1999/xlink" x="0px" y="0px"
	 viewBox="0 0 512 512" style="enable-background:new 0 0 512 512;" xml:space="preserve">
<style type="text/css">
	.st0{fill:#FFFFFF;}
</style>
<rect x="248" y="328" class="st0" width="16" height="40"/>
<rect x="248" y="448" class="st0" width="16" height="40"/>
<rect x="248" y="384" class="st0" width="16" height="48"/>
<rect x="408" y="344" class="st0" width="16" height="24"/>
<rect x="408" y="448" class="st0" width="16" height="24"/>
<rect x="88" y="344" class="st0" width="16" height="24"/>
<rect x="88" y="448" class="st0" width="16" height="24"/>
<rect x="88" y="400" class="st0" width="16" height="16"/>
<rect x="408" y="400" class="st0" width="16" height="16"/>
<rect x="232" y="224" class="st0" width="48" height="16"/>
<rect x="248" y="384" class="st0" width="16" height="48"/>
<rect x="88" y="400" class="st0" width="16" height="16"/>
<rect x="408" y="400" class="st0" width="16" height="16"/>
<path class="st0" d="M256,48c-26.5,0-48,21.5-48,48s21.5,48,48,48s48-21.5,48-48C304,69.5,282.5,48,256,48z M256,128
	c-17.7,0-32-14.3-32-32s14.3-32,32-32s32,14.3,32,32S273.7,128,256,128z"/>
<path class="st0" d="M472,48h-88c-10.1,0-19.1,6.4-22.5,16h-32.2c-17.6-40.5-64.7-59-105.2-41.3c-18.5,8.1-33.3,22.8-41.3,41.3
	h-32.2c-3.4-9.6-12.4-16-22.5-16H40c-13.3,0-24,10.7-24,24v32c0,13.3,10.7,24,24,24h88c10.1,0,19.1-6.4,22.5-16h27.1
	c5.3,25.5,22.6,46.8,46.4,57.3V192h-16c-13.3,0-24,10.7-24,24v40.8c-18.6,3.8-32,20.2-32,39.2v88h-16v-24c0-13.3-10.7-24-24-24H80
	c-13.3,0-24,10.7-24,24v96c0,13.3,10.7,24,24,24h32c13.3,0,24-10.7,24-24v-24h80v40c0,13.3,10.7,24,24,24h32c13.3,0,24-10.7,24-24
	v-40h80v24c0,13.3,10.7,24,24,24h32c13.3,0,24-10.7,24-24v-96c0-13.3-10.7-24-24-24h-32c-13.3,0-24,10.7-24,24v24h-16v-88
	c0-19-13.4-35.4-32-39.2V216c0-13.3-10.7-24-24-24h-16v-22.7c23.8-10.4,41.1-31.8,46.4-57.3h27.1c3.4,9.5,12.4,16,22.5,16h88
	c13.3,0,24-10.7,24-24V72C496,58.7,485.3,48,472,48z M136,104c0,4.4-3.6,8-8,8H40c-4.4,0-8-3.6-8-8v-8h104V104z M136,80H32v-8
	c0-4.4,3.6-8,8-8h88c4.4,0,8,3.6,8,8V80z M176,96h-24V80h25.6C176.5,85.3,176,90.6,176,96z M120,384v72c0,4.4-3.6,8-8,8h-8v-16H88
	v16h-8c-4.4,0-8-3.6-8-8v-96c0-4.4,3.6-8,8-8h8v16h16v-16h8c4.4,0,8,3.6,8,8V384z M152,416h-16v-16h16V416z M392,432v-72
	c0-4.4,3.6-8,8-8h8v16h16v-16h8c4.4,0,8,3.6,8,8v96c0,4.4-3.6,8-8,8h-8v-16h-16v16h-8c-4.4,0-8-3.6-8-8V432z M360,400h16v16h-16V400
	z M216,416h-16v-16h16V416z M280,384v88c0,4.4-3.6,8-8,8h-8v-32h-16v32h-8c-4.4,0-8-3.6-8-8V344c0-4.4,3.6-8,8-8h8v32h16v-32h8
	c4.4,0,8,3.6,8,8V384z M312,416h-16v-16h16V416z M312,384h-16v-40c0-13.3-10.7-24-24-24h-32c-13.3,0-24,10.7-24,24v40h-16v-72
	c0-4.4,3.6-8,8-8h96c4.4,0,8,3.6,8,8V384z M344,296v120h-16V312c0-13.3-10.7-24-24-24h-96c-13.3,0-24,10.7-24,24v104h-16V296
	c0-13.3,10.7-24,24-24h128C333.3,272,344,282.7,344,296z M304,208c4.4,0,8,3.6,8,8v40H200v-40c0-4.4,3.6-8,8-8H304z M240,192v-17.6
	c10.6,2.2,21.4,2.2,32,0V192H240z M256,160c-35.3,0-64-28.7-64-64s28.7-64,64-64s64,28.7,64,64C320,131.3,291.3,160,256,160z
	 M360,96h-24c0-5.4-0.5-10.7-1.6-16H360V96z M480,104c0,4.4-3.6,8-8,8h-88c-4.4,0-8-3.6-8-8v-8h104V104z M480,80H376v-8
	c0-4.4,3.6-8,8-8h88c4.4,0,8,3.6,8,8V80z"/>
<rect x="232" y="224" class="st0" width="48" height="16"/>
</svg>
